^C:\USERS\GARBIEL\DESKTOP\NOWY FOLDER\PRALKA2\RELEASE\MAIN.OBJ|C:\USERS\GARBIEL\DESKTOP\NOWY FOLDER\PRALKA2\RELEASE\PODPRALKA_AUT.OBJ|C:\USERS\GARBIEL\DESKTOP\NOWY FOLDER\PRALKA2\RELEASE\PODPRALKA_DYN.OBJ|C:\USERS\GARBIEL\DESKTOP\NOWY FOLDER\PRALKA2\RELEASE\PRALKA.OBJ
C:\USERS\GARBIEL\DESKTOP\NOWY FOLDER\PRALKA2\RELEASE\PRALKA2.EXE
C:\USERS\GARBIEL\DESKTOP\NOWY FOLDER\PRALKA2\RELEASE\PRALKA2.PDB
